…
pols_df
```

    ## # A tibble: 822 x 8
    ##    date     gov_gop sen_gop rep_gop gov_dem sen_dem rep_dem president
    ##    <chr>      <dbl>   <dbl>   <dbl>   <dbl>   <dbl>   <dbl> <chr>    
    ##  1 1947 Jan      23      51     253      23      45     198 dem      
    ##  2 1947 Feb      23      51     253      23      45     198 dem      
    ##  3 1947 Mar      23      51     253      23      45     198 dem      
    ##  4 1947 Apr      23      51     253      23      45     198 dem      
    ##  5 1947 May      23      51     253      23      45     198 dem      
    ##  6 1947 Jun      23      51     253      23      45     198 dem      
    ##  7 1947 Jul      23      51     253      23      45     198 dem      
    ##  8 1947 Aug      23      51     253      23      45     198 dem      
    ##  9 1947 Sep      23      51     253      23      45     198 dem      
    ## 10 1947 Oct      23      51     253      23      45     198 dem      
    ## # ... with 812 more rows
…
unemploy_df
```

    ## # A tibble: 816 x 2
    ##    date     percent_unemploy
    ##    <chr>               <dbl>
    ##  1 1948 Jan              3.4
    ##  2 1948 Feb              3.8
    ##  3 1948 Mar              4  
    ##  4 1948 Apr              3.9
    ##  5 1948 May              3.5
    ##  6 1948 Jun              3.6
    ##  7 1948 Jul              3.6
    ##  8 1948 Aug              3.9
    ##  9 1948 Sep              3.8
    ## 10 1948 Oct              3.7
    ## # ... with 806 more rows

Join the datasets by merging snp into pols, and merging unemployment
into the result.

``` r
union2_df = 
  full_join(pols_df, snp_df, by = "date")

union3_df = 
  full_join(union2_df, unemploy_df, by = "date")

union3_df
```

    ## # A tibble: 828 x 10
    ##    date     gov_gop sen_gop rep_gop gov_dem sen_dem rep_dem president close
    ##    <chr>      <dbl>   <dbl>   <dbl>   <dbl>   <dbl>   <dbl> <chr>     <dbl>
    ##  1 1947 Jan      23      51     253      23      45     198 dem          NA
    ##  2 1947 Feb      23      51     253      23      45     198 dem          NA
    ##  3 1947 Mar      23      51     253      23      45     198 dem          NA
    ##  4 1947 Apr      23      51     253      23      45     198 dem          NA
    ##  5 1947 May      23      51     253      23      45     198 dem          NA
    ##  6 1947 Jun      23      51     253      23      45     198 dem          NA
    ##  7 1947 Jul      23      51     253      23      45     198 dem          NA
    ##  8 1947 Aug      23      51     253      23      45     198 dem          NA
    ##  9 1947 Sep      23      51     253      23      45     198 dem          NA
    ## 10 1947 Oct      23      51     253      23      45     198 dem          NA
    ## # ... with 818 more rows, and 1 more variable: percent_unemploy <dbl>
…
``` r
pbname_df = 
  read_csv("data/Popular_Baby_Names.csv") %>% 
  janitor::clean_names() %>% 
  mutate(childs_first_name = str_to_lower(childs_first_name),
         ethnicity = replace(ethnicity, ethnicity == "ASIAN AND PACI", "ASIAN AND PACIFIC ISLANDER"),
         ethnicity = replace(ethnicity, ethnicity == "BLACK NON HISP", "BLACK NON HISPANIC"),
         ethnicity = replace(ethnicity, ethnicity == "WHITE NON HISP", "WHITE NON HISPANIC")) %>% 
  distinct()

pbname_df
```

    ## # A tibble: 12,181 x 6
    ##    year_of_birth gender ethnicity                  childs_first_name count  rank
    ##            <dbl> <chr>  <chr>                      <chr>             <dbl> <dbl>
    ##  1          2016 FEMALE ASIAN AND PACIFIC ISLANDER olivia              172     1
    ##  2          2016 FEMALE ASIAN AND PACIFIC ISLANDER chloe               112     2
    ##  3          2016 FEMALE ASIAN AND PACIFIC ISLANDER sophia              104     3
    ##  4          2016 FEMALE ASIAN AND PACIFIC ISLANDER emily                99     4
    ##  5          2016 FEMALE ASIAN AND PACIFIC ISLANDER emma                 99     4
    ##  6          2016 FEMALE ASIAN AND PACIFIC ISLANDER mia                  79     5
    ##  7          2016 FEMALE ASIAN AND PACIFIC ISLANDER charlotte            59     6
    ##  8          2016 FEMALE ASIAN AND PACIFIC ISLANDER sarah                57     7
    ##  9          2016 FEMALE ASIAN AND PACIFIC ISLANDER isabella             56     8
    ## 10          2016 FEMALE ASIAN AND PACIFIC ISLANDER hannah               56     8
    ## # ... with 12,171 more rows
…
